D-
C+
B
B+
B+
B+
B+
C
B+
C+
C+
B+
D-
B+
D+
C+
C+
B+
C-
D+
D+
C+
B+
D+
D+
C-
B-
B+
B-
B+
B+
B+
B+
C-
B+
C+
B+
B+
D+
B+
C+
B+
B+
C+
D+
D+
B+
B+
C+
D+
C-
B-
C-
B-
D+
D+
D+
C-
C+
B-
C-
C+
D-
D+
B
C+
C+
D+
B
C+
C+
C+
B+
B+
D+
C-
C-
C+
C+
B
D+
B+
C+
C+
B+
C-
B+
B+
D+
C+
B+
D+
D+
B
C-
C+
C+
C+
D+
C+
C+
B-
C
B
B-
D+
C-
B+
C+
D+
B-
D+
B-
C-
B+
C+
A-
B+
C+
D+
C+
B+
A
B-
B
C+
B
D+
B+
B+
C
B
B-
B+
B
C+
B+
C+
C-
C+
D+
B+
D+
B+
B-
B
B+
B-
C
C+
B+
D+
C+
D+
B+
C+
D+
C+
B+
D+
C-
D+
B+
C-
C-
D+
C+
B+
C+
B-
D+
D+
B-
D+
C-
D+
C+
C+
C+
B+
C+
C+
B+
B-
B+
B+
C+
C+
B+
B+
D+
B+
D-
C+
D+
D+
B+
D+
C+
D+
B+
D+
D+
D+
C-
D+
D+
C+
C-
C+
C+
B+
D+
B-
B+
C
C+
C+
D+
B+
B+
B
C+
B+
B+
C-
C-
B+
D+
B+
B+
B
B-
D+
D+
D+
B-
D+
C+
D+
D+
C-
D+
B
C+
C+
C+
B+
B+
C+
B+
B-
B+
B+
D+
D+
B+
B+
D+
C+
B+
C+
C
D+
D+
B+
D+
C
C+
C+
B+
B+
D+
C+
C+
D+
D+
B-
B+
B
C-
D+
B-
C+
B+
A-
C+
D+
D+
D+
B+
D+
