D+
B+
B+
B+
D+
C+
B-
D+
B+
B-
B+
D+
D+
B-
C
B+
B+
F
B-
B+
C-
D+
D+
B-
B+
C+
B+
D+
F
C
B+
D+
B+
D+
B-
C+
B+
C-
D-
B+
B-
C-
C-
B-
D+
D-
B-
B+
B
B
B
D+
B-
B-
B+
B-
B
C-
C
B-
D+
B-
C+
B+
B+
D+
C+
D+
C
B-
D+
B+
F
B-
D-
B
D+
B
B-
B+
A-
C+
B
D-
B-
B-
B+
C+
B-
D+
D+
B+
A-
B-
B+
C+
B+
B+
C
C
C
B+
B
B+
B+
B-
C+
A-
F
B-
B+
B+
C
B+
B-
B-
B+
B+
B+
B+
B+
B-
C-
D+
B+
C
D+
B+
D+
B-
B
B+
D+
D+
B
B-
D+
B+
D-
C+
D-
B+
B
A
B-
B
B+
D+
C-
C+
B
C+
B+
F
C
C
D+
B-
B+
D+
B-
C+
D+
C+
C+
C
B+
B+
A
B-
B+
D+
D+
B+
A
D+
D+
B
B-
C-
B-
A
D+
B-
B-
D+
B-
B+
B-
C+
B
C+
B-
D+
F
B+
D+
B+
C+
B-
B+
B-
F
D+
D+
B-
B
C+
D+
F
C+
C+
B
B-
D+
B
B
B+
B-
B-
D+
B-
A
C
B-
D+
B-
B+
B
B+
B-
D+
B-
D-
B-
B+
B+
B
A-
B-
B-
B+
B-
B+
D+
B-
B+
B-
C
B+
B-
B+
C+
B+
B+
B+
B-
B-
A-
B-
B+
D+
C+
D+
B+
B-
C-
A
D+
F
C
B+
B+
A
