F
F
F
C+
C
D+
D-
D-
B+
C+
D+
F
B-
D+
D+
C-
D+
B-
D-
B+
D+
F
A
F
D-
D+
C-
D+
C+
F
D+
F
B-
F
D+
F
B
B-
C
D+
D-
D-
D+
F
F
D+
B-
D-
D-
F
B-
F
F
F
D+
D-
F
D+
D-
D-
D-
F
F
F
D+
D-
F
F
D-
B
C+
D-
D-
C
F
D+
F
D+
C-
D+
B+
F
D+
D+
B+
F
D+
C+
C
F
F
F
F
F
D-
C
C
C-
C+
C
D
D+
D-
D+
D+
C
F
B-
D+
D+
C-
C+
D-
D+
B
F
C+
D-
B-
D+
F
B+
D+
B
D-
D+
B
B-
D-
B-
D-
F
B
B
D-
D+
C
C+
F
C+
F
B+
D-
C+
C+
D-
D+
D-
D+
D+
D-
F
D
F
F
D+
D-
F
D-
B-
F
D+
D+
C-
F
C
C+
F
D-
D+
F
F
D+
D-
F
F
D+
F
D+
D+
D+
D+
C
C-
B+
C-
D+
F
F
D+
D+
D+
F
D+
D+
B-
D+
F
F
F
D+
F
C+
B-
D+
F
C
F
F
D+
D-
F
C
F
F
C
F
F
D-
D+
C-
